%!PS-Adobe-3.0 EPSF-3.0
%%Creator: cairo 1.14.2 (http://cairographics.org)
%%CreationDate: Mon Jul  4 10:25:37 2016
%%Pages: 1
%%DocumentData: Clean7Bit
%%LanguageLevel: 2
%%BoundingBox: 0 -1 350 410
%%EndComments
%%BeginProlog
save
50 dict begin
/q { gsave } bind def
/Q { grestore } bind def
/cm { 6 array astore concat } bind def
/w { setlinewidth } bind def
/J { setlinecap } bind def
/j { setlinejoin } bind def
/M { setmiterlimit } bind def
/d { setdash } bind def
/m { moveto } bind def
/l { lineto } bind def
/c { curveto } bind def
/h { closepath } bind def
/re { exch dup neg 3 1 roll 5 3 roll moveto 0 rlineto
      0 exch rlineto 0 rlineto closepath } bind def
/S { stroke } bind def
/f { fill } bind def
/f* { eofill } bind def
/n { newpath } bind def
/W { clip } bind def
/W* { eoclip } bind def
/BT { } bind def
/ET { } bind def
/pdfmark where { pop globaldict /?pdfmark /exec load put }
    { globaldict begin /?pdfmark /pop load def /pdfmark
    /cleartomark load def end } ifelse
/BDC { mark 3 1 roll /BDC pdfmark } bind def
/EMC { mark /EMC pdfmark } bind def
/cairo_store_point { /cairo_point_y exch def /cairo_point_x exch def } def
/Tj { show currentpoint cairo_store_point } bind def
/TJ {
  {
    dup
    type /stringtype eq
    { show } { -0.001 mul 0 cairo_font_matrix dtransform rmoveto } ifelse
  } forall
  currentpoint cairo_store_point
} bind def
/cairo_selectfont { cairo_font_matrix aload pop pop pop 0 0 6 array astore
    cairo_font exch selectfont cairo_point_x cairo_point_y moveto } bind def
/Tf { pop /cairo_font exch def /cairo_font_matrix where
      { pop cairo_selectfont } if } bind def
/Td { matrix translate cairo_font_matrix matrix concatmatrix dup
      /cairo_font_matrix exch def dup 4 get exch 5 get cairo_store_point
      /cairo_font where { pop cairo_selectfont } if } bind def
/Tm { 2 copy 8 2 roll 6 array astore /cairo_font_matrix exch def
      cairo_store_point /cairo_font where { pop cairo_selectfont } if } bind def
/g { setgray } bind def
/rg { setrgbcolor } bind def
/d1 { setcachedevice } bind def
%%EndProlog
%%BeginSetup
%%EndSetup
%%Page: 1 1
%%BeginPageSetup
%%PageBoundingBox: 0 -1 350 410
%%EndPageSetup
q 0 -1 350 411 rectclip q
0.176471 0.25098 0.305882 rg
108.902 95.476 m 110.699 89.265 107.125 82.773 100.914 80.976 c 90.332 
77.913 l 84.125 76.116 77.633 79.691 75.836 85.898 c 43.852 196.339 l 42.055
 202.55 45.629 209.042 51.836 210.839 c 62.418 213.901 l 68.629 215.702 
75.117 212.124 76.918 205.917 c h
108.902 95.476 m f
43.852 196.339 m 35.133 193.523 l 63.703 93.691 l 72.797 96.386 l h
43.852 196.339 m f
0.94902 0.713726 0.262745 rg
26.871 227.605 m 35.133 193.523 l 63.703 93.691 l 63.703 93.691 67.492 
81.64 69.902 78.886 c 69.902 78.886 63.703 68.905 59.918 68.905 c 59.918
 68.905 56.477 73.378 50.621 93.691 c 44.77 114.003 25.148 182.851 25.148
 182.851 c 25.148 182.851 21.707 194.21 20.328 203.507 c 18.953 212.8 15.164
 227.601 15.164 227.601 c 26.871 227.601 l h
26.871 227.605 m f
0.615686 0.384314 0.152941 rg
50.621 93.691 m 44.77 114.003 25.148 182.851 25.148 182.851 c 25.148 182.851
 21.707 194.21 20.328 203.507 c 18.953 212.8 15.164 227.601 15.164 227.601
 c 0.02 224.503 l 0.02 224.503 -0.438 186.062 3.234 160.358 c 6.906 134.655
 17.004 104.593 24.805 93.691 c 32.609 82.788 35.133 80.265 35.133 80.265
 c 35.133 80.265 54.066 69.593 59.918 68.905 c 59.918 68.905 56.477 73.378
 50.621 93.691 c h
50.621 93.691 m f
0.847059 0.6 0.196078 rg
63.703 93.691 m 63.703 93.691 67.492 81.64 69.902 78.886 c 69.902 78.886
 70.59 84.511 66.801 94.608 c h
63.703 93.691 m f
0.615686 0.384314 0.152941 rg
15.164 228.98 m 15.164 228.98 10.348 245.503 12.754 260.995 c 15.164 276.487
 22.738 301.616 36.852 325.714 c 30.656 329.499 l 30.656 329.499 14.477 
298.862 9.656 283.714 c 4.84 268.569 -0.008 235.183 0 226.226 c h
15.164 228.98 m f
0.94902 0.713726 0.262745 rg
15.164 228.98 m 15.164 228.98 10.348 245.503 12.754 260.995 c 15.164 276.487
 22.738 301.616 36.852 325.714 c 44.312 321.007 l 44.312 321.007 12.18 276.718
 26.18 228.98 c h
15.164 228.98 m f
0.176471 0.25098 0.305882 rg
221.176 95.476 m 219.375 89.265 222.953 82.773 229.16 80.976 c 239.742 
77.913 l 245.949 76.116 252.441 79.691 254.242 85.898 c 286.223 196.339 
l 288.02 202.55 284.445 209.042 278.238 210.839 c 267.656 213.901 l 261.445
 215.702 254.957 212.124 253.156 205.917 c h
221.176 95.476 m f
286.223 196.339 m 294.941 193.523 l 266.371 93.691 l 257.277 96.386 l h
286.223 196.339 m f
0.94902 0.713726 0.262745 rg
303.207 227.605 m 294.941 193.523 l 266.371 93.691 l 266.371 93.691 262.582
 81.64 260.176 78.886 c 260.176 78.886 266.371 68.905 270.156 68.905 c 270.156
 68.905 273.602 73.378 279.453 93.691 c 285.305 113.999 304.93 182.851 304.93
 182.851 c 304.93 182.851 308.371 194.21 309.746 203.503 c 311.121 212.8
 314.91 227.601 314.91 227.601 c 303.207 227.601 l h
303.207 227.605 m f
0.615686 0.384314 0.152941 rg
330.059 224.503 m 314.91 227.605 l 314.91 227.605 311.121 212.8 309.746
 203.507 c 308.371 194.21 304.93 182.851 304.93 182.851 c 304.93 182.851
 285.305 114.003 279.453 93.691 c 273.602 73.382 270.156 68.905 270.156 
68.905 c 276.012 69.593 294.941 80.265 294.941 80.265 c 294.941 80.265 297.469
 82.788 305.27 93.691 c 313.074 104.593 323.172 134.655 326.844 160.358 
c 330.516 186.066 330.059 224.503 330.059 224.503 c h
330.059 224.503 m f
0.847059 0.6 0.196078 rg
266.371 93.691 m 266.371 93.691 262.582 81.64 260.176 78.886 c 260.176 
78.886 259.484 84.511 263.273 94.608 c h
266.371 93.691 m f
0.615686 0.384314 0.152941 rg
314.91 228.98 m 314.91 228.98 319.73 245.503 317.32 260.995 c 314.91 276.487
 307.336 301.616 293.223 325.714 c 299.418 329.499 l 299.418 329.499 315.602
 298.862 320.418 283.714 c 325.238 268.569 330.082 235.183 330.074 226.226
 c h
314.91 228.98 m f
0.94902 0.713726 0.262745 rg
314.91 228.98 m 314.91 228.98 319.73 245.503 317.32 260.995 c 314.91 276.487
 307.336 301.616 293.223 325.714 c 285.766 321.007 l 285.766 321.007 317.898
 276.718 303.898 228.98 c h
314.91 228.98 m f
0.615686 0.384314 0.152941 rg
232.75 393.3 m 200.391 410.284 165.039 409.597 165.039 409.597 c 165.039
 409.597 129.684 410.284 97.324 393.3 c 64.965 376.319 41.098 347.401 31.688
 331.566 c 44.312 322.847 l 44.312 322.847 54.41 340.288 78.277 360.257 
c 78.277 360.257 78.508 369.206 88.605 377.694 c 98.703 386.187 122.129 
399.269 165.039 401.335 c 207.945 399.269 231.371 386.187 241.469 377.694
 c 251.566 369.206 251.797 360.257 251.797 360.257 c 275.664 340.288 285.766
 322.847 285.766 322.847 c 298.387 331.566 l 288.977 347.401 265.109 376.319
 232.75 393.3 c h
232.75 393.3 m f
0.176471 0.25098 0.305882 rg
248.816 374.023 m 247.527 372.98 l 247.527 372.98 252.258 368.573 253.289
 363.237 c 253.289 363.237 271.535 346.886 280.828 333.288 c 280.828 333.288
 282.207 339.14 278.594 345.163 c 274.977 351.191 248.816 374.023 248.816
 374.023 c h
248.816 374.023 m f
165.039 401.335 m 124.488 399.382 101.336 387.593 90.395 379.136 c 90.395
 379.136 95.605 374.14 102.605 372.304 c 109.605 370.468 119.934 371.155
 125.785 371.499 c 131.637 371.843 165.039 372.073 165.039 372.073 c 165.039
 372.073 198.438 371.843 204.289 371.499 c 210.141 371.155 220.473 370.468
 227.473 372.304 c 234.473 374.14 239.684 379.136 239.684 379.136 c 228.738
 387.593 205.586 399.382 165.039 401.335 c h
165.039 401.335 m f
325.688 152.132 m 331.34 150.163 l 331.34 150.163 335.348 158.628 342.883
 155.999 c 350.418 153.374 350.754 147.269 347.254 137.222 c 342.109 122.464
 337.902 122.523 336.02 123.179 c 329.562 104.651 l 323.16 107.093 l 329.508
 125.304 l 329.508 125.304 323.289 125.534 327.824 139.066 c 323.047 140.73
 l h
325.688 152.132 m f
323.16 107.093 m 323.16 107.093 286.078 13.288 195.203 13.288 c 195.203
 6.218 l 195.203 6.218 287.543 1.773 329.562 104.651 c h
323.16 107.093 m f
195.246 5.171 m 195.246 2.316 192.59 -0.001 189.309 -0.001 c 158.875 -0.001
 l 155.598 -0.001 152.938 2.316 152.938 5.171 c 152.938 13.382 l 152.938
 16.237 155.598 18.554 158.875 18.554 c 189.309 18.554 l 192.59 18.554 195.246
 16.237 195.246 13.382 c h
195.246 5.171 m f
81.262 374.023 m 82.551 372.98 l 82.551 372.98 77.82 368.573 76.785 363.237
 c 76.785 363.237 58.543 346.886 49.246 333.288 c 49.246 333.288 47.871 
339.14 51.484 345.163 c 55.098 351.191 81.262 374.023 81.262 374.023 c h
81.262 374.023 m f
0.568627 0.352941 0.14902 rg
50.621 93.691 m 56.477 73.378 59.918 68.905 59.918 68.905 c 54.066 69.593
 35.133 80.265 35.133 80.265 c 35.133 80.265 32.609 82.788 24.805 93.691
 c 17.004 104.593 6.906 134.655 3.234 160.358 c -0.438 186.066 0.02 224.503
 0.02 224.503 c 3.324 225.183 l 3.324 225.183 3.805 179.066 9.312 157.378
 c 14.82 135.691 33.066 100.573 40.984 96.444 c 48.902 92.316 50.621 93.691
 50.621 93.691 c h
50.621 93.691 m f
279.453 93.691 m 273.602 73.378 270.156 68.905 270.156 68.905 c 276.012
 69.593 294.941 80.265 294.941 80.265 c 294.941 80.265 297.469 82.788 305.27
 93.691 c 313.074 104.593 323.172 134.655 326.844 160.358 c 330.516 186.066
 330.059 224.503 330.059 224.503 c 326.754 225.183 l 326.754 225.183 326.27
 179.066 320.762 157.378 c 315.254 135.691 297.008 100.573 289.094 96.444
 c 281.176 92.316 279.453 93.691 279.453 93.691 c h
279.453 93.691 m f
2.75 226.726 m 2.75 226.726 4.84 246.882 7.246 262.374 c 9.656 277.862 
19.312 303.71 33.43 327.808 c 30.656 329.503 l 30.656 329.503 14.477 298.862
 9.656 283.718 c 4.84 268.569 -0.008 235.183 0 226.226 c h
2.75 226.726 m f
327.328 226.726 m 327.328 226.726 325.238 246.882 322.828 262.374 c 320.418
 277.862 310.762 303.71 296.648 327.808 c 299.418 329.503 l 299.418 329.503
 315.602 298.862 320.418 283.718 c 325.238 268.569 330.082 235.183 330.074
 226.226 c h
327.328 226.726 m f
33.43 330.362 m 31.691 331.566 l 41.102 347.401 64.969 376.319 97.328 393.3
 c 97.328 393.3 59.613 371.499 33.43 330.362 c h
33.43 330.362 m f
296.805 330.472 m 298.387 331.566 l 288.977 347.401 265.109 376.319 232.75
 393.3 c 232.75 393.3 268.273 374.819 296.805 330.472 c h
296.805 330.472 m f
0.847059 0.6 0.196078 rg
18.426 228.98 m 15.164 228.98 l 15.164 228.98 10.348 245.503 12.754 260.995
 c 15.164 276.487 22.738 301.616 36.852 325.714 c 38.555 324.64 l 38.555
 324.64 18.266 290.944 15.164 260.995 c 12.719 241.675 18.426 228.98 18.426
 228.98 c h
18.426 228.98 m f
311.648 228.98 m 314.91 228.98 l 314.91 228.98 319.73 245.503 317.32 260.995
 c 314.91 276.487 307.336 301.616 293.223 325.714 c 291.52 324.64 l 291.52
 324.64 311.812 290.944 314.91 260.995 c 317.355 241.675 311.648 228.98 
311.648 228.98 c h
311.648 228.98 m f
64.707 72.03 m 63.074 70.292 61.328 68.905 59.918 68.905 c 59.918 68.905
 56.477 73.382 50.621 93.691 c 44.77 114.003 25.148 182.851 25.148 182.851
 c 25.148 182.851 21.707 194.21 20.328 203.507 c 18.953 212.8 15.164 227.601
 15.164 227.601 c 18.426 227.601 l 18.426 227.601 24.012 197.999 28.195 
183.538 c 32.379 169.081 54.066 95.409 58.195 85.085 c 62.328 74.757 64.707
 72.03 64.707 72.03 c h
64.707 72.03 m f
265.367 72.03 m 267.004 70.292 268.746 68.905 270.156 68.905 c 270.156 
68.905 273.602 73.382 279.453 93.691 c 285.305 113.999 304.926 182.851 304.926
 182.851 c 304.926 182.851 308.371 194.21 309.746 203.507 c 311.121 212.8
 314.91 227.601 314.91 227.601 c 311.648 227.601 l 311.648 227.601 306.062
 197.999 301.879 183.538 c 297.695 169.081 276.008 95.409 271.879 85.085
 c 267.746 74.757 265.367 72.03 265.367 72.03 c h
265.367 72.03 m f
0.145098 0.215686 0.266667 rg
51.84 210.839 m 45.629 209.042 42.055 202.55 43.852 196.339 c 75.836 85.898
 l 77.633 79.691 84.125 76.116 90.336 77.913 c h
51.84 210.839 m f
278.238 210.839 m 284.445 209.042 288.02 202.55 286.223 196.339 c 254.242
 85.898 l 252.441 79.691 245.949 76.116 239.742 77.913 c h
278.238 210.839 m f
0.133333 0.203922 0.25098 rg
43.852 196.339 m 38.555 194.628 l 66.801 94.608 l 72.797 96.386 l h
43.852 196.339 m f
286.223 196.339 m 291.52 194.628 l 263.273 94.608 l 257.277 96.386 l h
286.223 196.339 m f
0.145098 0.215686 0.266667 rg
92.82 377.151 m 91.281 378.284 90.395 379.136 90.395 379.136 c 101.336 
387.593 124.488 399.382 165.039 401.335 c 205.586 399.382 228.738 387.593
 239.684 379.136 c 239.684 379.136 238.969 378.448 237.711 377.491 c 237.711
 377.491 213.961 393.3 165.039 393.3 c 116.113 393.3 92.82 377.151 92.82
 377.151 c h
92.82 377.151 m f
324.758 106.483 m 323.16 107.093 l 329.508 125.304 l 329.508 125.304 323.289
 125.534 327.824 139.066 c 323.047 140.73 l 325.688 152.132 l 331.34 150.163
 l 331.34 150.163 335.348 158.628 342.883 155.999 c 342.883 155.999 338.844
 156.909 335.133 148.253 c 331.418 139.601 327.707 129.335 331.855 126.714
 c h
324.758 106.483 m f
152.938 5.171 m 152.938 2.316 155.598 -0.001 158.875 -0.001 c 189.309 -0.001
 l 192.59 -0.001 195.246 2.316 195.246 5.171 c h
152.938 5.171 m f
0.94902 0.713726 0.262745 rg
161.789 18.55 4.844 -18.551 re f
0.847059 0.6 0.196078 rg
161.789 5.171 4.844 -5.172 re f
Q Q
showpage
%%Trailer
end restore
%%EOF
