%!PS-Adobe-3.0 EPSF-3.0
%%Creator: cairo 1.14.2 (http://cairographics.org)
%%CreationDate: Mon Jul  4 10:26:18 2016
%%Pages: 1
%%DocumentData: Clean7Bit
%%LanguageLevel: 2
%%BoundingBox: 0 -1 410 216
%%EndComments
%%BeginProlog
save
50 dict begin
/q { gsave } bind def
/Q { grestore } bind def
/cm { 6 array astore concat } bind def
/w { setlinewidth } bind def
/J { setlinecap } bind def
/j { setlinejoin } bind def
/M { setmiterlimit } bind def
/d { setdash } bind def
/m { moveto } bind def
/l { lineto } bind def
/c { curveto } bind def
/h { closepath } bind def
/re { exch dup neg 3 1 roll 5 3 roll moveto 0 rlineto
      0 exch rlineto 0 rlineto closepath } bind def
/S { stroke } bind def
/f { fill } bind def
/f* { eofill } bind def
/n { newpath } bind def
/W { clip } bind def
/W* { eoclip } bind def
/BT { } bind def
/ET { } bind def
/pdfmark where { pop globaldict /?pdfmark /exec load put }
    { globaldict begin /?pdfmark /pop load def /pdfmark
    /cleartomark load def end } ifelse
/BDC { mark 3 1 roll /BDC pdfmark } bind def
/EMC { mark /EMC pdfmark } bind def
/cairo_store_point { /cairo_point_y exch def /cairo_point_x exch def } def
/Tj { show currentpoint cairo_store_point } bind def
/TJ {
  {
    dup
    type /stringtype eq
    { show } { -0.001 mul 0 cairo_font_matrix dtransform rmoveto } ifelse
  } forall
  currentpoint cairo_store_point
} bind def
/cairo_selectfont { cairo_font_matrix aload pop pop pop 0 0 6 array astore
    cairo_font exch selectfont cairo_point_x cairo_point_y moveto } bind def
/Tf { pop /cairo_font exch def /cairo_font_matrix where
      { pop cairo_selectfont } if } bind def
/Td { matrix translate cairo_font_matrix matrix concatmatrix dup
      /cairo_font_matrix exch def dup 4 get exch 5 get cairo_store_point
      /cairo_font where { pop cairo_selectfont } if } bind def
/Tm { 2 copy 8 2 roll 6 array astore /cairo_font_matrix exch def
      cairo_store_point /cairo_font where { pop cairo_selectfont } if } bind def
/g { setgray } bind def
/rg { setrgbcolor } bind def
/d1 { setcachedevice } bind def
%%EndProlog
%%BeginSetup
%%EndSetup
%%Page: 1 1
%%BeginPageSetup
%%PageBoundingBox: 0 -1 410 216
%%EndPageSetup
q 0 -1 410 217 rectclip q
0.819608 0.835294 0.835294 rg
87.32 152.891 m 87.32 150.462 86.59 148.493 85.691 148.493 c 34.344 148.493
 l 33.441 148.493 32.711 150.462 32.711 152.891 c 32.711 155.321 33.441 
157.29 34.344 157.29 c 85.691 157.29 l 86.59 157.29 87.32 155.321 87.32 
152.891 c h
87.32 152.891 m f
87.32 130.368 m 87.32 127.942 86.355 125.973 85.164 125.973 c 17.113 125.973
 l 15.922 125.973 14.957 127.942 14.957 130.368 c 14.957 132.798 15.922 
134.766 17.113 134.766 c 85.164 134.766 l 86.355 134.766 87.32 132.798 87.32
 130.368 c h
87.32 130.368 m f
87.32 62.809 m 87.32 65.239 86.59 67.208 85.691 67.208 c 34.344 67.208 
l 33.441 67.208 32.711 65.239 32.711 62.809 c 32.711 60.383 33.441 58.415
 34.344 58.415 c 85.691 58.415 l 86.59 58.415 87.32 60.383 87.32 62.809 
c h
87.32 62.809 m f
87.32 85.329 m 87.32 87.758 86.355 89.727 85.164 89.727 c 17.113 89.727
 l 15.922 89.727 14.957 87.758 14.957 85.329 c 14.957 82.903 15.922 80.934
 17.113 80.934 c 85.164 80.934 l 86.355 80.93 87.32 82.903 87.32 85.329 
c h
87.32 85.329 m f
87.32 107.852 m 87.32 105.423 86.152 103.454 84.719 103.454 c 2.605 103.454
 l 1.168 103.454 0 105.423 0 107.852 c 0 110.278 1.168 112.247 2.605 112.247
 c 84.719 112.247 l 86.152 112.247 87.32 110.278 87.32 107.852 c h
87.32 107.852 m f
0.886275 0.898039 0.905882 rg
409.602 17.602 m 409.602 7.883 401.719 0.005 392 0.005 c 118.18 0.005 l
 108.457 0.005 100.578 7.883 100.578 17.602 c 100.578 198.094 l 100.578 
207.817 108.457 215.696 118.18 215.696 c 392 215.696 l 401.719 215.696 409.602
 207.817 409.602 198.094 c h
409.602 17.602 m f
0.819608 0.835294 0.835294 rg
384.199 59.919 m 384.199 57.962 382.027 56.372 379.352 56.372 c 284.156
 56.372 l 281.48 56.372 279.309 57.962 279.309 59.919 c 279.309 60.055 l
 279.309 62.012 281.48 63.598 284.156 63.598 c 379.352 63.598 l 382.027 
63.598 384.199 62.012 384.199 60.055 c h
384.199 59.919 m f
384.199 46.309 m 384.199 44.352 382.027 42.762 379.352 42.762 c 284.156
 42.762 l 281.48 42.762 279.309 44.348 279.309 46.309 c 279.309 46.442 l
 279.309 48.403 281.48 49.989 284.156 49.989 c 379.352 49.989 l 382.027 
49.989 384.199 48.403 384.199 46.442 c h
384.199 46.309 m f
384.199 32.696 m 384.199 30.739 382.027 29.153 379.352 29.153 c 284.156
 29.153 l 281.48 29.153 279.309 30.739 279.309 32.696 c 279.309 32.833 l
 279.309 34.79 281.48 36.38 284.156 36.38 c 379.352 36.38 l 382.027 36.38
 384.199 34.794 384.199 32.833 c h
384.199 32.696 m f
0.87451 0.345098 0.298039 rg
175.555 215.696 m 163.777 205.298 l 182.473 205.298 l 194.25 215.696 l 
h
175.555 215.696 m f
0.886275 0.898039 0.905882 rg
156.859 215.696 m 145.082 205.298 l 163.777 205.298 l 175.555 215.696 l
 h
156.859 215.696 m f
194.25 215.696 m 182.473 205.298 l 201.168 205.298 l 212.945 215.696 l 
h
194.25 215.696 m f
231.641 215.696 m 219.863 205.298 l 238.559 205.298 l 250.336 215.696 l
 h
231.641 215.696 m f
0.87451 0.345098 0.298039 rg
100.578 215.696 m 100.578 205.298 l 107.691 205.298 l 119.469 215.696 l
 h
100.578 215.696 m f
0.886275 0.898039 0.905882 rg
119.469 215.696 m 107.691 205.298 l 126.387 205.298 l 138.164 215.696 l
 h
119.469 215.696 m f
343.809 215.696 m 332.035 205.298 l 350.73 205.298 l 362.504 215.696 l 
h
343.809 215.696 m f
381.199 215.696 m 369.426 205.298 l 388.121 205.298 l 399.898 215.696 l
 h
381.199 215.696 m f
0.87451 0.345098 0.298039 rg
250.336 215.696 m 238.559 205.298 l 257.254 205.298 l 269.031 215.696 l
 h
250.336 215.696 m f
399.898 215.696 m 388.121 205.298 l 409.602 205.298 l 409.602 215.696 l
 h
399.898 215.696 m f
325.113 215.696 m 313.34 205.298 l 332.035 205.298 l 343.809 215.696 l 
h
325.113 215.696 m f
0.886275 0.898039 0.905882 rg
269.031 215.696 m 257.254 205.298 l 275.949 205.298 l 287.727 215.696 l
 h
269.031 215.696 m f
0.176471 0.25098 0.305882 rg
212.945 215.696 m 201.168 205.298 l 219.863 205.298 l 231.641 215.696 l
 h
212.945 215.696 m f
138.164 215.696 m 126.387 205.298 l 145.082 205.298 l 156.859 215.696 l
 h
138.164 215.696 m f
362.504 215.696 m 350.73 205.298 l 369.426 205.298 l 381.199 215.696 l 
h
362.504 215.696 m f
287.727 215.696 m 275.949 205.298 l 294.645 205.298 l 306.422 215.696 l
 h
287.727 215.696 m f
0.886275 0.898039 0.905882 rg
306.422 215.696 m 294.645 205.298 l 313.34 205.298 l 325.113 215.696 l 
h
306.422 215.696 m f
0.87451 0.345098 0.298039 rg
110.977 37.45 m 100.578 28.477 l 100.578 42.719 l 110.977 51.688 l h
110.977 37.45 m f
0.886275 0.898039 0.905882 rg
110.977 23.208 m 100.578 14.239 l 100.578 28.477 l 110.977 37.45 l h
110.977 23.208 m f
110.977 51.688 m 100.578 42.719 l 100.578 56.954 l 110.977 65.923 l h
110.977 51.688 m f
110.977 80.161 m 100.578 71.192 l 100.578 85.43 l 110.977 94.399 l h
110.977 80.161 m f
110.977 165.591 m 100.578 156.622 l 100.578 170.86 l 110.977 179.829 l 
h
110.977 165.591 m f
110.977 194.067 m 100.578 185.098 l 100.578 199.337 l 110.977 208.305 l
 h
110.977 194.067 m f
0.87451 0.345098 0.298039 rg
110.977 94.399 m 100.578 85.43 l 100.578 99.669 l 110.977 108.637 l h
110.977 94.399 m f
110.977 208.305 m 100.578 199.337 l 100.578 215.696 l 110.977 215.696 l
 h
110.977 208.305 m f
110.977 151.352 m 100.578 142.383 l 100.578 156.622 l 110.977 165.591 l
 h
110.977 151.352 m f
0.886275 0.898039 0.905882 rg
110.977 108.637 m 100.578 99.669 l 100.578 113.907 l 110.977 122.876 l 
h
110.977 108.637 m f
0.176471 0.25098 0.305882 rg
110.977 65.923 m 100.578 56.954 l 100.578 71.192 l 110.977 80.161 l h
110.977 65.923 m f
110.977 0.001 m 100.578 0.001 l 100.578 14.239 l 110.977 23.208 l h
110.977 0.001 m f
110.977 179.829 m 100.578 170.86 l 100.578 185.098 l 110.977 194.067 l 
h
110.977 179.829 m f
110.977 122.876 m 100.578 113.907 l 100.578 128.149 l 110.977 137.114 l
 h
110.977 122.876 m f
0.886275 0.898039 0.905882 rg
110.977 137.114 m 100.578 128.149 l 100.578 142.383 l 110.977 151.352 l
 h
110.977 137.114 m f
0.87451 0.345098 0.298039 rg
178.062 0.005 m 166.41 10.403 l 184.906 10.403 l 196.559 0.005 l h
178.062 0.005 m f
0.886275 0.898039 0.905882 rg
159.566 0.005 m 147.918 10.403 l 166.41 10.403 l 178.062 0.005 l h
159.566 0.005 m f
196.559 0.005 m 184.906 10.403 l 203.402 10.403 l 215.055 0.005 l h
196.559 0.005 m f
233.547 0.005 m 221.898 10.403 l 240.391 10.403 l 252.043 0.005 l h
233.547 0.005 m f
0.87451 0.345098 0.298039 rg
100.578 0.005 m 100.578 10.403 l 110.93 10.403 l 122.578 0.005 l h
100.578 0.005 m f
0.886275 0.898039 0.905882 rg
344.516 0.005 m 332.867 10.403 l 351.363 10.403 l 363.008 0.005 l h
344.516 0.005 m f
381.504 0.005 m 369.855 10.403 l 388.352 10.403 l 400 0.005 l h
381.504 0.005 m f
0.87451 0.345098 0.298039 rg
252.043 0.005 m 240.391 10.403 l 258.887 10.403 l 270.535 0.005 l h
252.043 0.005 m f
400 0.005 m 388.352 10.403 l 409.602 10.403 l 409.602 0.005 l h
400 0.005 m f
326.02 0.005 m 314.371 10.403 l 332.867 10.403 l 344.516 0.005 l h
326.02 0.005 m f
0.886275 0.898039 0.905882 rg
270.535 0.005 m 258.887 10.403 l 277.383 10.403 l 289.031 0.005 l h
270.535 0.005 m f
0.176471 0.25098 0.305882 rg
215.055 0.005 m 203.402 10.403 l 221.898 10.403 l 233.547 0.005 l h
215.055 0.005 m f
141.074 0.005 m 129.426 10.403 l 147.918 10.403 l 159.566 0.005 l h
141.074 0.005 m f
363.008 0.005 m 351.363 10.403 l 369.855 10.403 l 381.504 0.005 l h
363.008 0.005 m f
289.031 0.005 m 277.383 10.403 l 295.875 10.403 l 307.527 0.005 l h
289.031 0.005 m f
0.886275 0.898039 0.905882 rg
307.527 0.005 m 295.875 10.403 l 314.371 10.403 l 326.02 0.005 l h
307.527 0.005 m f
0.87451 0.345098 0.298039 rg
399.199 38.153 m 409.602 29.477 l 409.602 43.247 l 399.199 51.919 l h
399.199 38.153 m f
0.886275 0.898039 0.905882 rg
399.199 24.387 m 409.602 15.716 l 409.602 29.477 l 399.199 38.153 l h
399.199 24.387 m f
399.199 51.919 m 409.602 43.247 l 409.602 57.012 l 399.199 65.684 l h
399.199 51.919 m f
399.199 79.454 m 409.602 70.778 l 409.602 84.544 l 399.199 93.219 l h
399.199 79.454 m f
399.199 162.051 m 409.602 153.38 l 409.602 167.145 l 399.199 175.817 l 
h
399.199 162.051 m f
399.199 189.587 m 409.602 180.915 l 409.602 194.676 l 399.199 203.352 l
 h
399.199 189.587 m f
0.87451 0.345098 0.298039 rg
399.199 93.219 m 409.602 84.544 l 409.602 98.313 l 399.199 106.985 l h
399.199 93.219 m f
399.199 203.352 m 409.602 194.676 l 409.602 210.497 l 399.199 210.497 l
 h
399.199 203.352 m f
399.199 148.282 m 409.602 139.614 l 409.602 153.38 l 399.199 162.051 l 
h
399.199 148.282 m f
0.886275 0.898039 0.905882 rg
399.199 106.985 m 409.602 98.313 l 409.602 112.079 l 399.199 120.751 l 
h
399.199 106.985 m f
0.176471 0.25098 0.305882 rg
399.199 65.684 m 409.602 57.012 l 409.602 70.778 l 399.199 79.454 l h
399.199 65.684 m f
399.199 1.946 m 409.602 1.946 l 409.602 15.716 l 399.199 24.387 l h
399.199 1.946 m f
399.199 175.817 m 409.602 167.145 l 409.602 180.915 l 399.199 189.587 l
 h
399.199 175.817 m f
399.199 120.751 m 409.602 112.079 l 409.602 125.844 l 399.199 134.516 l
 h
399.199 120.751 m f
0.886275 0.898039 0.905882 rg
399.199 134.516 m 409.602 125.844 l 409.602 139.614 l 399.199 148.282 l
 h
399.199 134.516 m f
0.819608 0.835294 0.835294 rg
379.664 137.411 m 379.664 132.391 375.586 128.325 370.551 128.325 c 338.277
 128.325 l 333.246 128.325 329.168 132.391 329.168 137.411 c 329.168 177.169
 l 329.168 182.184 333.246 186.255 338.277 186.255 c 370.551 186.255 l 375.586
 186.255 379.664 182.184 379.664 177.169 c h
379.664 137.411 m f
Q Q
showpage
%%Trailer
end restore
%%EOF
