%!PS-Adobe-3.0 EPSF-3.0
%%Creator: cairo 1.14.2 (http://cairographics.org)
%%CreationDate: Mon Jul  4 10:26:00 2016
%%Pages: 1
%%DocumentData: Clean7Bit
%%LanguageLevel: 2
%%BoundingBox: 0 -1 410 364
%%EndComments
%%BeginProlog
save
50 dict begin
/q { gsave } bind def
/Q { grestore } bind def
/cm { 6 array astore concat } bind def
/w { setlinewidth } bind def
/J { setlinecap } bind def
/j { setlinejoin } bind def
/M { setmiterlimit } bind def
/d { setdash } bind def
/m { moveto } bind def
/l { lineto } bind def
/c { curveto } bind def
/h { closepath } bind def
/re { exch dup neg 3 1 roll 5 3 roll moveto 0 rlineto
      0 exch rlineto 0 rlineto closepath } bind def
/S { stroke } bind def
/f { fill } bind def
/f* { eofill } bind def
/n { newpath } bind def
/W { clip } bind def
/W* { eoclip } bind def
/BT { } bind def
/ET { } bind def
/pdfmark where { pop globaldict /?pdfmark /exec load put }
    { globaldict begin /?pdfmark /pop load def /pdfmark
    /cleartomark load def end } ifelse
/BDC { mark 3 1 roll /BDC pdfmark } bind def
/EMC { mark /EMC pdfmark } bind def
/cairo_store_point { /cairo_point_y exch def /cairo_point_x exch def } def
/Tj { show currentpoint cairo_store_point } bind def
/TJ {
  {
    dup
    type /stringtype eq
    { show } { -0.001 mul 0 cairo_font_matrix dtransform rmoveto } ifelse
  } forall
  currentpoint cairo_store_point
} bind def
/cairo_selectfont { cairo_font_matrix aload pop pop pop 0 0 6 array astore
    cairo_font exch selectfont cairo_point_x cairo_point_y moveto } bind def
/Tf { pop /cairo_font exch def /cairo_font_matrix where
      { pop cairo_selectfont } if } bind def
/Td { matrix translate cairo_font_matrix matrix concatmatrix dup
      /cairo_font_matrix exch def dup 4 get exch 5 get cairo_store_point
      /cairo_font where { pop cairo_selectfont } if } bind def
/Tm { 2 copy 8 2 roll 6 array astore /cairo_font_matrix exch def
      cairo_store_point /cairo_font where { pop cairo_selectfont } if } bind def
/g { setgray } bind def
/rg { setrgbcolor } bind def
/d1 { setcachedevice } bind def
%%EndProlog
%%BeginSetup
%%EndSetup
%%Page: 1 1
%%BeginPageSetup
%%PageBoundingBox: 0 -1 410 364
%%EndPageSetup
q 0 -1 410 365 rectclip q
0.776471 0.796078 0.796078 rg
0 363.34 m 264.934 27.754 l 288.484 107.656 l h
0 363.34 m f
0.839216 0.447059 0.678431 rg
185.176 199.219 m 166.988 151.82 l 264.934 27.754 l 288.484 107.656 l h
185.176 199.219 m f
0.819608 0.835294 0.835294 rg
264.934 27.754 m 240.543 87.469 l 0 363.34 l 213.633 69.809 l h
264.934 27.754 m f
0.886275 0.898039 0.905882 rg
240.543 87.469 m 102.609 0 l 0 363.34 l h
240.543 87.469 m f
288.484 107.656 m 0 363.34 l 409.602 160.645 l h
288.484 107.656 m f
0.917647 0.556863 0.737255 rg
146.117 195.766 m 99.004 12.77 l 102.609 0 l 240.676 87.574 l h
146.117 195.766 m f
392.742 168.985 m 185.176 199.219 l 288.387 107.317 l 409.602 160.645 l
 h
392.742 168.985 m f
0.839216 0.447059 0.678431 rg
146.117 195.766 m 99.004 12.77 l 153.039 187.84 l h
146.117 195.766 m f
185.176 199.219 m 194.379 191.02 l 392.742 168.985 l h
185.176 199.219 m f
0.776471 0.796078 0.796078 rg
240.676 87.574 m 213.328 70.227 l 234.258 52.902 l h
240.676 87.574 m f
0.917647 0.556863 0.737255 rg
10.172 327.32 m 18.406 342.235 l 0 363.34 l h
10.172 327.32 m f
22.328 343.551 m 40.914 343.094 l 0 363.34 l h
22.328 343.551 m f
Q Q
showpage
%%Trailer
end restore
%%EOF
