<?xml version="1.0" encoding="UTF-8"?><svg xmlns="http://www.w3.org/2000/svg" height="280.43pt" version="1.1" viewBox="0 0 427.62 280.43" width="427.62pt">
 <defs>
  <clipPath id="clip1">
   <path d="m0 0h427.62v243h-427.62z"/>
  </clipPath>
  <clipPath id="clip2">
   <path d="m59 118h271v162.43h-271z"/>
  </clipPath>
  <clipPath id="clip3">
   <path d="m294 276h8v4.43h-8z"/>
  </clipPath>
 </defs>
 <g id="surface1">
  <g clip-path="url(#clip1)" id="change1_1">
   <path d="m417.47 141.25c1.2-0.4 8.1-3 9.8-8.9 2.3-8.3-7.3-19.2-16.9-18.6-7.5 0.5-11.9 7.7-12.4 8.6 7.8 4.8 14.5 11.2 19.5 18.9zm-100-2.9c6.4-9.2 15.1-16.5 25.2-21.3-2.7-6.6-8.4-11.3-14.8-11.9-10-0.9-19.3 8.5-19.1 18.3 0.1 8.9 7.9 14.4 8.7 14.9zm-299-138.3c-6.602-0.80078-13.801 9.6992-15.204 16.699-0.1987 0.801-0.3979 2.5-1.0971 5.402-1.5 6.899-1.6992 6-2 8.5-0.50002 4.7 0.09763 9.399 1.6992 13.797v0.102c2.1016 6.199 5.8984 11.601 11 15.601 2.301 2 5.102 3.5 8 4.5 9.902 2.899 19.801-3.101 28-8 3.102-1.902 2.5-1.8 10.602-7.101 8.097-5.301 12.8-8 17.199-7 1.601 0.398 3.199 1 4.699 1.801 1.801 0.898 3.402 2.097 4.801 3.5 6-2.5 12.398-4 18.898-4.602-3.4-5-9.5-12.5-18.898-14.898-24.699-6.301-50.199 28.5-62.899 20.097-5.101-3.398-5.601-11.797-5.601-12.898-0.699-12.199 11.301-18.102 8.801-27.399-1.102-3.9996-4.602-7.6011-8-8.1011zm334.5 113.7c31.3-6.6 68.4 16.5 71.1 46 1.5 16.5-7.9 33.4-21 42.7-23.9 17-58 7.6-58.1 8.9-0.2 1.8 70.6 5.2 71.8 17.9 0.4 3.8-5.5 7.2-8.1 8.8-14.3 8.4-30.5 2.6-46.8-0.8-21.5-4.5-18 0.5-55.3-2.9-40.9-3.8-71.6-12.1-102-20.4-18.6-5.1-42.6-12.3-70.2-22.6 36.1 19.7 40.7 26.9 39.6 29.9-2.3 6.4-31.8 1.5-41.2-0.1-22.6-3.7-37.7-6.2-53.2-16.1-4.297-2.7-38.597-25.5-42.699-67.7-3.699-38.303 18.699-77.202 50-89.702 12.199-4.8 23.099-4.703 29.799-4.601 16.7 0.199 33.8 6.301 66.1 25 32.7 18.898 37.6 37.103 76.1 56.603 17.3 8.8 35.4 15.7 54.1 20.7 2.7-4.7 15.5-26.4 40-31.6" fill="#f1553f"/>
  </g>
  <g id="change2_1"><path d="m414.27 191.45c-6.1-4.5-11.2-7.1-12.3-6s1.7 6.3 6.6 12.4zm6.8-12.3c-5.5-3-15.2-7.9-16.4-6.2s7.7 10.5 12.2 14.6c0.9-1.6 1.8-3.4 2.7-5.2 0.5-1 1-2.1 1.5-3.2zm3.1-14.2c-8.8-1.4-19.7-2.9-20.2-1s10.5 6.7 18.8 10zm-104 29c1.3 1.5 2.7 3 4.2 4.3 3.4-3.2 13.9-13.4 12.4-15.4s-15.2 5.6-19 7.7c0.7 1.2 1.5 2.3 2.4 3.4zm-8.4-14.8c0.6 1.8 1.4 3.5 2.4 5.1 9.6-4.2 23.4-10.6 22.7-12.9s-16.1 0.7-26.3 2.9c0.2 1.6 0.6 3.3 1.2 4.9zm-2.6-12.9c11.8-0.8 27.9-2.3 28-4.7s-15.6-4.8-27.4-6.2zm-237.6-137.4c2 4.699 2 10 0.301 14.8 3-1.8 6.801-1.601 9.602 0.598 3.199-4.699 4.8-10.301 4.8-15.898-4.902-1.102-9.902-0.903-14.703 0.5zm-30.5 16.199c3.703 3.301 5.801 8 5.703 13l12.7-8.301c0-2.199-0.602-4.398-1.602-6.398-1.098-2.2-2.801-4.2-4.898-5.602zm-27.797 15.398c1.797 1.403 3.797 2.602 5.797 3.602 3.203-2.102 5.903-4.801 8.102-8 1.301-2 2.398-4.199 3.199-6.5-3.301-0.102-6.398-1.102-9.098-3-1.8 1.699-3.703 3-5.902 4.101-2.898 1.399-5.9999 2.2-9.1015 2.399 1.8008 2.801 4.2035 5.301 7.0035 7.398zm-13.203-29.398c2.5 1.801 5.4024 3.101 8.4024 3.699 3.0003 0.602 6.0973 0.602 9.0973 0 0.301-5.098 2.102-10 5.203-14.098-3.601 0.5-7.3 0.399-10.902-0.5-2.9999-0.703-5.9999-1.902-8.6015-3.5zm45.102 135c5.898-3.4 8.801-7.8 8-9.6s-5.899-2-11.801 0.2zm-6.602-19.7c8-2 13.5-5.3 13.203-7.5-0.3-2.2-6.5-4-15-3.7zm-1.398-28c3.898 1.2 14 4.1 15.301 1.6 1.597-3-10.602-12.2-13-14zm9.601-31.803c7.7 10.801 12.297 15.803 13.797 15.003 1.703-0.9-0.797-9.503-7.398-25.702zm20.598-27c5.301 21.601 9.102 32.301 11.402 32 2.5-0.399 3-14 1.797-41.102zm222.2 78.203c-5.7 8.4-8 13.1-6.9 14 1.2 1.1 6.6-2.5 16.2-10.8zm-26.2-11.2c-9.9 18-10 21.8-9 22.5s4.7-0.6 20-17.4zm-24.4-14.1c-7 13-15.8 30.2-13.4 31.9s15.2-13.2 24.6-24.7zm-24.4-20.505c-15.7 28.605-20.3 40.005-18.5 41.205s10-7.1 29.1-31.5zm-34.6-25.797c-23.1 46.802-23.8 55.102-22 56.202s8.8-3.4 39.3-45.104c-3-2.199-6.3-4.5-9.9-6.699-2.6-1.699-5-3.102-7.4-4.399zm-33.7-16.3l12.9 5.097c-31.3 40.5-41.9 49.305-44.7 47.505s0.3-14.505 21.1-56.903l10.7 4.301" fill="#1f1315"/></g>
  <g clip-path="url(#clip2)" id="change3_1">
   <path d="m319.17 217.35c5.3-1.3 9.4-4.9 10.4-9.4 1.6-7.7-6.8-16-13.4-14.9-3.1 0.5-5.3 2.9-6.4 4.5 0.9 1 1.8 2 2.5 3.1 0.8 1.2 1.6 2.6 2.2 3.9 2.2 4.7 4.4 11.7 4.7 12.8zm-59.5-26.1c-0.4-0.8-3.2-6.5-8.4-7.2-7.2-0.9-14.9 8.4-12.7 15.5 1.5 5 7.5 6.9 8.4 7.2 0.3-0.9 0.6-1.7 1-2.5 1.5-3 3.5-5.7 5.9-8 1.4-1.5 2.9-2.9 4.6-4.1 0.5-0.4 0.9-0.7 1.2-0.9zm-189.3-72.4c-5.398-0.2-14 16.3-9.801 29.7 0.5 1.5 3.703 11.1 11.301 13.4 11.602 3.5 23.301-17.8 36.099-13.6l1.5 0.6c1.7-0.7 3.4-1.4 5.2-1.9 1.9-0.6 3.8-1 5.8-1.3-2-3.2-5.1-6.8-9.7-8.1-14.297-4.1-32.399 17.2-37.497 13.5-3.101-2.3-3.3-7.9-3.402-8.6-0.398-8.1 6.801-12.1 5.301-18.3-0.602-2.6-2.602-5.4-4.801-5.4zm197.7 68c15-5.4 31.3-0.4 41.2 10.1 6.5 7.1 10.2 16.2 10.4 25.8 0.3 14.8-7.9 28.8-19.2 35.1-15.8 8.8-36.1 1.7-36.1 2s42.5 3.4 43.2 11.9c0.2 2.5-3.3 4.8-4.9 5.8-8.6 5.6-18.4 1.7-28.1-0.5-12.9-3-10.8 0.3-33.3-2-24.6-2.5-43.1-8.1-61.3-13.6-11.2-3.4-25.6-8.2-42.2-15.1 21.7 13.1 24.5 17.9 23.8 20-1.4 4.3-19.1 1-24.8 0-13.6-2.5-22.7-4.1-32-10.8-21.797-15.5-25.399-42.2-25.7-45.2-2.297-21.4 5.903-47.8 26.1-59.3 6-3.4 12.7-5.4 19.6-5.8 28.8-1.5 42.3 25.1 84.8 50 11.1 6.5 22.8 12.1 34.8 16.6 0.8-2 6.5-18.7 23.7-25" fill="#e6bf53"/>
  </g>
  <g id="change2_2"><path d="m102.47 147.75c1.4-0.2 2.8-0.2 4.2 0.1 0.8-1.2 1.6-2.5 2.2-3.8 1-2 1.6-4.2 2-6.4-1.8-0.4-3.6-0.5-5.4-0.4-2.5 0.2-4.9 1-7.099 2.3 0.301 3.8-0.301 7.7-1.801 11.2 1.602-1.6 3.6-2.6 5.9-3zm-22.798 13.8c2.699-0.7 5.199-2.1 7.301-3.9l-1.403-10c-2.699 2.4-6.097 3.9-9.699 4.4l-3.898 9.9c2.5 0.4 5.097 0.3 7.699-0.4zm-20.5-21.6c0 2.9 0.398 5.7 1.398 8.4 1.602-0.2 3.301-0.6 5.102-1s3.301-0.9 4.801-1.4c-0.7-1.8-0.903-3.8-0.7-5.7 0.297-2.4 1.2-4.7 2.7-6.6-4 1.5-8.403 0.6-11.5-2.2-1.102 2.7-1.7 5.6-1.801 8.5zm249.7 111.3c-2.1-3.5-3.5-5.2-4.3-4.9s-0.7 3.2 0.3 8.5zm7-10.4c-0.8-0.5-6.3-3.9-7.5-2.6-1 1 0.8 4.8 4.2 9.3zm3.4-11.7c-6.3-0.4-11 0.2-11.3 1.6s3.8 3.7 9.6 5.7c0.6-2.4 1.2-4.8 1.7-7.3zm-58.4 25.1c2.9-5.2 4-9.4 2.8-10.3s-4.7 1.5-8.4 5.4zm-8.7-8.6c1.5-1.1 10.4-7.8 9.5-9.5s-11.6 2.7-13.3 3.4zm-6.3-12.2c5-1.5 14.3-4.5 14-6s-10.4-0.9-15.5-0.6c0.4 2.2 1 4.4 1.5 6.6zm-164.8-13.6c6.403-0.3 7.203-1.4 7.203-1.9 0.297-1.7-5.902-4.1-8.8-5.2 0.5 2.4 1.097 4.8 1.597 7.1zm-2.297-19.1c5.899 3.4 9.297 4.7 10.098 3.7 1-1.2-2-5.9-9-14zm4-21.2c5.399 4.2 8.598 5.8 9.5 5 1.098-1-0.8-5.5-5.902-13.4zm14-22.7c-1.203 1.1-2.203 2.3-3 3.7 8.297 10.8 10.697 12 11.497 11.5s1.2-3.3-4.8-17.8c-1.4 0.7-2.599 1.5-3.697 2.6zm140.5 52.2c-0.6 1.5-2.9 7.4-1.8 8.1s5.5-5.1 6.3-6.2zm-13.4-6c-1.6 2.8-6.2 11.1-4.4 12.6 2.1 1.7 11.7-6.8 13.4-8.4zm-17.8-9.8c-8.9 12.2-9 14.9-8.3 15.6 1.7 1.7 10.4-4.4 17.9-10.1zm-19.4-13.3c-1.9 2.6-11.1 15.1-8.8 17.4 2.4 2.4 16.8-8.5 18.9-10.1zm-19.8-15.7c-1.1 1.6-13.2 19.4-10.3 22s20-11.9 21.3-13zm-20.4-14.9c2.8 1.3 5.4 3.1 7.7 5.2-1.6 2.2-17.1 24-21.2 21.8s5.3-26.7 6.3-29.3c2.4 0.5 4.9 1.2 7.2 2.3" fill="#1f1315"/></g>
  <g id="change4_2"><path d="m390.67 179.15c-0.3 1.7-0.8 3.4-1.5 5l-1.2 1.9c-4.6 2.4-7.7 1.7-9.1-2.1-2.4-3.6-2-7.7-2.4-11.9 0-0.6-0.4-1-1-1s-1 0.4-1 1c-0.4 3.8-0.3 8.1-2.4 11.5-4.7 7.6-11.5 1.2-13.2-4.5-0.1-0.5-0.7-0.8-1.2-0.7s-0.8 0.7-0.7 1.2c1.5 5.3 6 11.4 12.3 9 6.6-2.4 6.5-10.8 7.2-16.6h-2c0.5 7-0.7 15.1 7.7 17.2 6.6 1.6 9.3-4 10.5-9.5 0.2-1.2-1.7-1.8-2-0.5" fill="#251317"/></g>
  <g id="change4_3"><path d="m162.17 160.05c2.8-19.9-8.8-35.6-26.9-42.6-17.8-6.9-38.098-3.7-53.399 7.6-1 0.8 0 2.5 1 1.7 14.199-10.5 33.199-14 49.999-8 17.7 6.3 30.1 21.2 27.3 40.8-0.1 1.3 1.8 1.8 2 0.5" fill="#251317"/></g>
  <g id="change4_4"><path d="m401.97 239.25c-2-1.3-4.2-2.2-6.6-2.4-1.3-0.2-1.3 1.9 0 2 2 0.3 3.9 1 5.6 2.1 1.1 0.7 2.1-1 1-1.7" fill="#251317"/></g>
  <g id="change4_5"><path d="m410.77 235.35c-1.9-1.3-4-2.1-6.2-2.6-1.3-0.3-1.8 1.7-0.5 1.9 2 0.4 4 1.3 5.7 2.4 1.1 0.7 2.1-1 1-1.7" fill="#251317"/></g>
  <g id="change4_6"><path d="m415.67 230.25c-1.3-1.4-3-2.3-4.8-2.8-1.3-0.3-1.8 1.6-0.5 1.9 1.5 0.3 2.9 1.1 3.9 2.2 0.9 1.1 2.3-0.4 1.4-1.3" fill="#251317"/></g>
  <g id="change4_7"><path d="m272.77 238.15c0.6 3 3.5 4.9 6.5 4.3 0.4-0.1 0.7-0.2 1.1-0.3 3.9-1.6 5.2-5.8 5.4-9.6 0.1-1.3-1.9-1.3-2 0-0.1 2.4-0.6 5-2.5 6.7-2.1 2-6 1.8-6.6-1.6-0.2-1.3-2.1-0.7-1.9 0.5" fill="#251317"/></g>
  <g id="change4_8"><path d="m284.07 232.55c-0.3 3.6-0.1 8.2 3.7 9.9s7.3-1.1 7.8-4.8c0.1-1.3-1.9-1.3-2 0-0.2 2-2 3.4-4 3.2-1.1-0.1-2.1-0.8-2.7-1.7-1.2-1.9-1-4.5-0.8-6.6 0.1-1.3-1.9-1.3-2 0" fill="#251317"/></g>
  <g id="change4_9"><path d="m142.57 249.75l-6.1-4.1 0.2 1.6c6.6-5.2 13.5-10.9 16.1-19.2 2.5-8.1 0.4-17.1-4.3-24-8.8-12.8-27.4-21.4-42.2-14.3-1.2 0.6-0.1 2.3 1 1.7 14.2-6.7 32.5 2.4 40.3 14.9 4.3 6.9 5.7 15.7 2.4 23.3-2.9 6.9-9 11.7-14.7 16.2-0.4 0.4-0.4 1 0 1.4l0.2 0.2 6.2 4.1c1 0.7 2-1 0.9-1.8" fill="#251317"/></g>
  <g id="change4_10"><path d="m274.17 220.75c0.9-4.1 1.4-11.1-4.4-11.8-5.1-0.6-6.9 7-8 10.7-0.1 0.5 0.3 1.1 0.8 1.2s0.9-0.2 1.1-0.6c0.5-1.6 1-3.3 1.7-4.8s1.5-4.3 3.5-4.5c4.9-0.4 3.9 6.6 3.3 9.3-0.2 1.2 1.7 1.7 2 0.5" fill="#251317"/></g>
  <g id="change4_11"><path d="m306.87 225.65c0.9-3.6 1.8-11.5-3.5-12.3-5.5-0.9-6.8 5.6-7 9.6-0.1 1.3 1.9 1.3 2 0 0.1-2.6 0.6-8 4.5-7.7s2.6 7.6 2.1 9.9c-0.3 1.2 1.6 1.8 1.9 0.5" fill="#251317"/></g>
  <g clip-path="url(#clip3)" id="change4_1">
   <path d="m300.87 278.45c-1.7-0.7-3.5-1.2-5.4-1.5-1.3-0.2-1.3 1.8 0 2 1.5 0.2 3 0.6 4.3 1.2 1.3 0.5 2.3-1.2 1.1-1.7" fill="#251317"/>
  </g>
  <g id="change4_12"><path d="m301.37 274.35l3.7 1.4c1.2 0.5 1.7-1.5 0.5-1.9l-3.7-1.4c-1.2-0.5-1.7 1.5-0.5 1.9" fill="#251317"/></g>
  <g id="change4_13"><path d="m307.47 270.55c-0.8-0.5-1.7-0.9-2.6-1.1-1.3-0.3-1.8 1.6-0.5 1.9 0.8 0.2 1.5 0.5 2.1 0.9 0.5 0.3 1.1 0.1 1.4-0.4 0.3-0.4 0.1-1-0.4-1.3" fill="#251317"/></g>
  <g id="change4_14"><path d="m148.87 267.35c1.2 1.1 2.6 2 4.1 2.7 0.5 0.1 1.1-0.2 1.2-0.7s-0.2-1.1-0.7-1.2c-1.2-0.5-2.3-1.2-3.3-2.1s-2.4 0.5-1.3 1.3" fill="#251317"/></g>
  <g id="change4_15"><path d="m155.67 265.85c1.1 1 2.4 1.8 3.7 2.6 0.5 0.3 1.1 0.1 1.3-0.4s0.1-1-0.3-1.3c-1.1-0.7-2.2-1.4-3.3-2.3-1-0.8-2.4 0.6-1.4 1.4" fill="#251317"/></g>
  <g id="change4_16"><path d="m162.97 261.95c-1.3-0.7-2.7-1.1-4.1-1.2-1.3-0.1-1.3 1.9 0 2 1.1 0 2.2 0.4 3.1 0.9 0.5 0.3 1.1 0.1 1.3-0.4 0.3-0.4 0.1-1-0.3-1.3" fill="#251317"/></g>
  <g id="change4_17"><path d="m353.57 154.75c0.4-4.3 0.3-10.4-4.8-12s-8.3 3.5-9.3 7.7c-0.3 1.3 1.6 1.8 1.9 0.5 0.8-3.2 3.7-8.6 7.8-5.8 3.1 2.1 2.7 6.4 2.4 9.6-0.2 1.3 1.8 1.3 2 0" fill="#251317"/></g>
  <g id="change4_18"><path d="m403.67 156.45c-0.2-3.5-1.2-8.5-5.7-8.6-4-0.1-6.4 5.2-7.2 8.4-0.1 0.5 0.2 1.1 0.7 1.2s1.1-0.2 1.2-0.7c0.6-2.1 1.9-5.6 4.1-6.6 3.8-1.8 4.7 4 4.9 6.4 0.1 1.2 2.1 1.2 2-0.1" fill="#251317"/></g>
  <g id="change4_19"><path d="m241.77 223.15c1.8 9.8 4.8 18.6 11.9 25.9 6.2 6.4 14.3 10.7 23.1 12.3 1.3 0.2 1.8-1.7 0.5-1.9-8.5-1.5-16.2-5.6-22.2-11.8-6.8-7.1-9.7-15.5-11.4-25-0.2-1.3-2.1-0.8-1.9 0.5" fill="#251317"/></g>
  <g id="change4_20"><path d="m310.47 147.35c-6.1 15.8-2.4 33.7 9.5 45.7 0.9 0.9 2.3-0.5 1.4-1.4-11.3-11.6-14.9-28.7-9-43.8 0.5-1.2-1.5-1.7-1.9-0.5" fill="#251317"/></g>
  <g id="change4_21"><path d="m283.07 229.65c-0.8 0.5-1 1.5-0.5 2.3l0.1 0.1c0.7 0.9 2 0.9 3 0.6 1-0.2 1.7-1 1.8-2 0-1.1-1-1.7-1.9-1.9-1.1-0.5-2.4-0.2-3.2 0.7-0.7 0.8-0.6 2 0.2 2.6l0.1 0.1c1.8 1.3 5 0.1 4.3-2.4-0.5-1.9-4.1-2.2-5-0.5-0.6 1.1 0.3 2.2 1.3 2.6 1 0.5 2.2 0.5 3.2-0.1 0.8-0.5 1.2-1.5 1.1-2.5-0.2-1-1.1-1.7-2.2-1.6-1.1-0.1-2.3 0.2-2.8 1.3-0.3 1 0.1 2.1 1 2.7 1 0.8 2.4 0.8 3.5 0.2 1-0.6 1.3-1.9 0.7-2.9 0 0 0-0.1-0.1-0.1-0.7-1-2.5-1.2-3.6-1.1-1.3 0.1-2.3 1.2-2.3 2.5 0 0.6 0.4 1 1 1s1-0.4 1-1c0-0.8 1.6-0.5 2-0.3 0.8 0.2-0.5 0.4-0.9 0.2-0.1-0.1-0.3-0.2-0.4-0.3-0.1-0.2-0.1 0 0-0.1 0.3-0.1 0.7-0.1 1.1 0 0 0-0.1 0.3-0.1 0.4s-0.7 0.2-0.9 0.1-0.3-0.1-0.5-0.2l-0.2-0.1-0.2 0.4 0.9-0.1c0.9 0.1 0.2 0.6-0.3 0.5-0.2 0-0.3-0.2-0.4 0 0.1-0.1 0.3-0.1 0.4-0.1 0.3 0 0.9 0.4 1.1 0.3 0.1 0.1 0.1 0 0.1-0.1s0-0.2-0.1-0.1c-0.1 0-0.3 0.1-0.4 0.1s-0.3 0-0.4 0.1-0.2 0-0.2 0.1c-0.1 0.2-0.1 0.3-0.2 0.5 1-0.9 0-2.6-1.1-1.9" fill="#251317"/></g>
  <g id="change4_22"><path d="m371.57 168.85c0.8 0.3 1 1.9 1.6 2.6 0.4 0.6 1 0.9 1.7 1 2.4 0.2 4.6-3.3 5.6-5 0.3-0.5 0.1-1.1-0.4-1.4-0.1 0-0.2-0.1-0.2-0.1-2.7-0.8-5.6-1-8.4-0.8-1.6 0.3-3 1.7-1.8 3.3 0.7 0.8 1.5 1.4 2.4 1.9 0.7 0.7 1.6 1.1 2.6 1.3 1.3 0.2 2.5-0.7 2.7-2v-0.9c-0.5-1.7-2.1-2.7-3.8-2.4-1.4 0.3-2.9 1.9-1.6 3.2s3.6 1.4 4.6-0.1c0.7-0.9 0.5-2.1-0.4-2.8-0.3-0.2-0.7-0.4-1.1-0.4-1.5-0.2-3.9 1.3-2.3 2.9s4.5-0.1 5.6-1.4c0.8-1-0.6-2.4-1.4-1.4-0.3 0.4-0.6 0.7-1 0.9-0.3 0.2-0.7 0.3-1.1 0.4-0.5-0.1-0.6 0.1-0.3 0.6-1.4-0.1-1.7-0.1-0.9 0 0.4 0.1 0.7 0.1 1.1 0.2 0.1 1.2-0.2 1.4-0.9 0.8-0.4-0.3-0.9-0.6-1.3-1-0.5-0.3-1.3-0.6-0.6-1.2 0.3-0.3 1.6 0 2.1 0 1.7 0.1 3.5 0.3 5.2 0.8l-0.6-1.5c-0.6 1-1.3 2-2.2 2.9-0.9 1-1.6 1.6-2.3 0.2-0.4-1.1-1.1-2-2.2-2.5s-1.6 1.4-0.4 1.9" fill="#251317"/></g>
 </g>
</svg>